<svg xmlns="http://www.w3.org/2000/svg" xmlns:xlink="http://www.w3.org/1999/xlink" width="150" height="150" viewBox="0 0 150 150">
  <defs>
    <rect id="fruit-10-a" width="150" height="150" rx="4"/>
  </defs>
  <g fill="none" fill-rule="evenodd">
    <mask id="fruit-10-b" fill="#fff">
      <use xlink:href="#fruit-10-a"/>
    </mask>
    <use fill="#FFD9D9" xlink:href="#fruit-10-a"/>
    <g fill-rule="nonzero" mask="url(#fruit-10-b)">
      <g transform="matrix(-1 0 0 1 126.145 37.467)">
        <path fill="#EFD229" d="M76.5022543,19.7246365 C74.5536683,28.3461702 71.5433801,38.3875708 61.6384232,43.538319 C44.6597153,52.368782 17.8314807,45.0647824 14.4331809,42.3487008 C11.034881,39.6326192 4.07625433,37.8034214 4.07625433,37.8034214 C4.34914164,37.1425224 4.61350123,36.4688319 4.87786083,35.8164606 C6.01920325,35.9328933 7.17190772,35.7780306 8.2420498,35.364491 C12.2074437,34.0085821 12.8853981,32.8402833 24.1121529,33.3476831 C34.8059248,33.8337637 37.4409929,36.997551 45.8877082,35.0873398 C54.3344235,33.1771286 56.645438,27.412384 62.9431656,23.668711 C69.2408933,19.9250381 73.338467,18.4071024 73.338467,18.4071024 L76.5022543,19.7246365 Z"/>
        <path fill="#E2BF2D" d="M78.4551042,35.897474 C75.7390226,42.3487008 66.8360738,53.217291 49.0344401,54.2320908 C31.2328064,55.2468905 11.2054355,52.0191452 7.79860791,44.386828 C6.85830794,42.3947488 5.22418122,40.8136782 3.20216213,39.9396174 C3.47931332,39.2659269 3.77778382,38.5410699 4.07625433,37.8076853 C4.07625433,37.8076853 11.0391448,39.6368831 14.4331809,42.3529647 C17.8272169,45.0690463 39.6539385,51.5586478 56.897006,43.2569039 C62.964485,40.3404207 65.1689028,31.8937054 76.510782,19.7289004 L78.6427142,20.6157842 C78.6427142,20.6157842 81.1669219,29.4419834 78.4551042,35.897474 Z"/>
        <path fill="#2B2A25" d="M4.78831967,35.8164606 L3.1467319,39.9140343 C2.14694392,39.4501204 1.0881184,39.125873 -1.77635684e-15,38.9504009 L2.84399753,34.8784104 C3.35763155,35.4155327 4.04823114,35.7487167 4.78831967,35.8164606 Z"/>
        <path fill="#EFD229" d="M4.87786083,35.8164606 C4.61350123,36.4688319 4.34914164,37.1425224 4.07625433,37.8034214 C3.77778382,38.5410699 3.47931332,39.2659269 3.20216213,39.9353536 L3.1467319,39.9097704 L4.78831967,35.8164606 L4.87786083,35.8164606 Z"/>
        <path fill="#EFD229" d="M4.87786083 35.8164606C4.61350123 36.4688319 4.34914164 37.1425224 4.07625433 37.8034214 3.77778382 38.5410699 3.47931332 39.2659269 3.20216213 39.9353536L3.1467319 39.9097704 4.78831967 35.8164606 4.87786083 35.8164606zM81.9600007 22.3341215C82.4631367 31.467319 82.3352207 42.3017983 74.2125591 50.0833507 60.2867782 63.43351 32.4266884 63.3013303 28.384545 61.4763963 24.3424016 59.6514624 17.1492624 59.694101 17.1492624 59.694101 17.226012 58.9607163 17.2984977 58.2145401 17.3709834 57.493947 18.504795 57.3030741 19.5756207 56.8408051 20.4921321 56.1465659 23.9330706 53.7332186 24.2656521 52.3858375 35.2280473 49.9042684 45.6702511 47.5378237 49.0856065 49.9980735 56.6966044 45.8365418 64.3076022 41.6750102 64.942918 35.2962692 69.9998612 29.8811614 75.0568043 24.4660537 78.5659647 21.8523048 78.5659647 21.8523048L81.9600007 22.3341215z"/>
        <path fill="#E2BF2D" d="M88.3046308,37.9697121 C87.451858,45.141532 81.9088343,58.3723031 65.0196676,64.1327838 C48.1305009,69.8932646 27.9496309,72.0081413 22.5515786,65.2797633 C21.1221971,63.5543365 19.1113853,62.4109337 16.8976944,62.0648096 C16.974444,61.3143695 17.0639852,60.512763 17.1492624,59.6983649 C17.1492624,59.6983649 24.3637209,59.6685178 28.384545,61.4763963 C32.4053691,63.2842748 60.4658605,58.436261 69.5564193,53.375054 C79.3633073,47.8959883 79.7044164,33.0918513 81.9600007,22.3383854 L84.2496958,22.6624391 C84.2496958,22.6624391 89.1446121,30.8021561 88.3046308,37.9697121 Z"/>
        <path fill="#2B2A25" d="M17.2814422,57.5110025 L16.8550558,62.052018 C15.766187,61.8561034 14.6550036,61.8159056 13.5548248,61.9326298 L15.1665655,57.1016715 C15.7985151,57.490182 16.5501691,57.6356635 17.2814422,57.5110025 Z"/>
        <path fill="#EFD229" d="M17.3709834,57.4982109 C17.2984977,58.2188039 17.226012,58.9649802 17.1492624,59.6983649 C17.0639852,60.512763 16.974444,61.3143695 16.8976944,62.0648096 L16.8380003,62.0648096 L17.2643868,57.523794 C17.301114,57.5213819 17.3371619,57.5127304 17.3709834,57.4982109 Z"/>
        <path fill="#EFD229" d="M17.3709834 57.4982109C17.2984977 58.2188039 17.226012 58.9649802 17.1492624 59.6983649 17.0639852 60.512763 16.974444 61.3143695 16.8976944 62.0648096L16.8380003 62.0648096 17.2643868 57.523794C17.301114 57.5213819 17.3371619 57.5127304 17.3709834 57.4982109zM90.0485514 20.3130498C93.9840982 28.5721551 97.9793391 38.6476665 93.4255319 48.9278435 85.6098686 66.5674504 59.7665867 77.0224458 55.357751 76.8774744 50.9489152 76.732503 44.2717036 79.4997509 44.2717036 79.4997509 44.0627743 78.7919495 43.8453172 78.0756203 43.6406517 77.3678188 44.6174903 76.7620231 45.4325225 75.9279687 46.0156241 74.9374161 48.284 71.3941448 48.0793345 70.0211805 57.2764899 63.561426 66.0387312 57.4086697 70.132041 58.3850946 75.5897873 51.6439251 81.0475337 44.9027556 79.214072 38.7627909 81.8320848 31.8297474 84.4500975 24.896704 86.7056817 21.1487672 86.7056817 21.1487672L90.0485514 20.3130498z"/>
        <path fill="#E2BF2D" d="M100.499283,32.3712582 C102.447869,39.3213571 103.675862,53.69058 90.2660085,65.416207 C76.856155,77.141834 58.9649802,86.7824313 51.4179403,82.6123719 C49.4393393,81.5575235 47.1430903,81.2632881 44.9624497,81.7851822 C44.7492564,81.0645892 44.5360632,80.2885659 44.2972868,79.4997509 C44.2972868,79.4997509 50.9574429,76.732503 55.3833341,76.8774744 C59.8092253,77.0224458 85.6354518,66.5674504 93.4511151,48.9278435 C98.0049223,38.6434027 94.0096814,28.5721551 90.0741346,20.3130498 L92.3126633,19.7459558 C92.3126633,19.7459558 98.5506969,25.4168954 100.499283,32.3712582 Z"/>
        <path fill="#2B2A25" d="M43.5809576,77.4275129 L44.8942278,81.7979738 C43.8086757,82.0257358 42.7617364,82.4091828 41.7858707,82.9364256 L41.4447616,77.8581632 C42.1855586,77.9822895 42.9461152,77.8289637 43.5809576,77.4275129 Z"/>
        <path fill="#EFD229" d="M43.6577072,77.3806104 C43.8666365,78.0756203 44.0840936,78.7919495 44.2887591,79.5125425 C44.5190078,80.3013574 44.7407287,81.0773808 44.9539219,81.7979738 C44.9340969,81.7955635 44.9140529,81.7955635 44.8942278,81.7979738 L43.5809576,77.4275129 C43.6088569,77.4160295 43.6347611,77.4001992 43.6577072,77.3806104 Z"/>
        <path fill="#EFD229" d="M43.6577072,77.3806104 C43.8666365,78.0756203 44.0840936,78.7919495 44.2887591,79.5125425 C44.5190078,80.3013574 44.7407287,81.0773808 44.9539219,81.7979738 C44.9340969,81.7955635 44.9140529,81.7955635 44.8942278,81.7979738 L43.5809576,77.4275129 C43.6088569,77.4160295 43.6347611,77.4001992 43.6577072,77.3806104 Z"/>
        <path fill="#83B533" d="M83.7039212,20.4665489 C83.0728693,19.1191678 82.296846,17.4519968 81.4440731,15.6398545 L81.1583942,15.025858 C81.4611286,18.1811176 81.9344175,22.2744274 81.9344175,22.2744274 L81.9344175,22.3000106 L81.9344175,22.3383854 L84.2241127,22.6624391 C84.2241127,22.6624391 84.0407665,21.7457082 83.7039212,20.4665489 Z"/>
        <path fill="#ACD841" d="M87.9720494,21.8395132 L81.8661957,11.1158944 C82.139083,9.47004274 84.8892755,6.42564359 84.9191225,6.39153267 C84.9489696,6.35742176 85.1024687,4.10610138 83.8019901,3.54753515 L82.1305553,2.98470505 L81.9429452,3.11262098 C81.5165588,2.35365313 80.4079541,2.0338633 78.6213949,2.08929354 C76.2080477,2.17030696 72.4643748,0.8613006 71.9612388,2.26411197 C71.3173952,4.05067114 73.7350063,3.70529813 74.0377407,6.16554786 C74.6432094,11.158533 73.3555224,18.3943108 73.3555224,18.3943108 L76.1142426,19.5455542 L76.5022543,19.7118449 L78.3868824,20.5006598 L78.6213949,20.5987287 L78.5659647,21.8437771 L81.9770561,22.3213299 L81.9770561,22.2829551 L81.9770561,22.2573719 C81.9770561,22.2573719 81.5037672,18.1555344 81.2010328,15.0088025 L81.4867117,15.622799 C82.3394846,17.4349414 83.1155079,19.1021123 83.7465598,20.4494935 L85.2772872,23.8776404 L87.9677856,21.8650964 L87.9720494,21.8395132 Z M78.0969396,18.8548082 L77.9604959,20.3173137 L76.0758679,19.5284988 L76.7836694,13.9854751 L76.8817382,13.2307711 L78.4082017,15.4906192 L78.0969396,18.8548082 Z"/>
        <path fill="#83B533" d="M86.287823,14.5994716 C82.6123719,6.84776616 89.5667347,8.35291028 89.5667347,8.35291028 C89.5667347,8.35291028 87.7929671,5.34262204 84.9191225,6.39153267 C84.9191225,6.39153267 82.139083,9.47004274 81.8661957,11.1158944 L87.9720494,21.8395132 L90.0314959,20.3002582 L92.2742886,19.7331642 C92.2742886,19.7331642 87.797231,17.7888421 86.287823,14.5994716 Z"/>
        <path fill="#5E3B15" d="M71.9612388,2.27690357 C71.9612388,2.27690357 80.3866347,2.27690357 82.3181653,3.43241081 C84.2496958,4.58791805 85.5800215,7.69627517 85.5800215,7.69627517 C86.943984,7.58282882 88.3146314,7.8129803 89.5667347,8.36570187 C89.9163716,5.06547086 90.2404253,1.79082303 89.8950523,1.43692229 C89.5496792,1.08302155 79.5679728,-0.69500989 75.6111067,0.324053691 C71.6542405,1.34311727 71.9612388,2.27690357 71.9612388,2.27690357 Z"/>
        <path fill="#ACD841" d="M84.9191225,6.39579654 C84.8892755,6.39579654 82.139083,9.4743066 81.8661957,11.1201582 C82.139083,9.47004274 84.9191225,6.39579654 84.9191225,6.39579654 Z"/>
        <polygon fill="#83B533" points="76.882 13.231 76.784 13.985 76.076 19.524 77.96 20.317 78.097 18.851 78.408 15.491"/>
      </g>
    </g>
  </g>
</svg>
