<svg xmlns="http://www.w3.org/2000/svg" xmlns:xlink="http://www.w3.org/1999/xlink" width="150" height="151" viewBox="0 0 150 151">
  <defs>
    <rect id="fruit-2-a" width="150" height="150" rx="4"/>
  </defs>
  <g fill="none" fill-rule="evenodd" transform="translate(0 .5)">
    <mask id="fruit-2-b" fill="#fff">
      <use xlink:href="#fruit-2-a"/>
    </mask>
    <use fill="#B5ECCE" xlink:href="#fruit-2-a"/>
    <g fill-rule="nonzero" mask="url(#fruit-2-b)">
      <g transform="translate(46.222 12.69)">
        <path fill="#69703C" d="M29.1299061,49.5208404 L28.7279134,55.3060398 L28.7279134,0 C28.7279134,0 32.5614091,6.60666271 32.8643601,16.5108308 C33.1673111,26.4149989 29.1299061,49.5208404 29.1299061,49.5208404 Z"/>
        <path fill="#556026" d="M28.7162615,0 L28.7162615,55.2769099 L28.3142688,49.5208404 C28.3142688,49.5208404 24.2826898,26.4441288 24.5798148,16.5399607 C24.8769398,6.63579262 28.7162615,0 28.7162615,0 Z"/>
        <path fill="#69703C" d="M29.8231979,49.340235 C27.8714942,55.4982972 29.2755557,51.9444486 28.0113177,56.1508071 C32.2992399,31.978811 34.5014608,25.0167634 47.3943573,4.03740499 C46.4214184,10.9528447 45.3843938,13.9823549 41.1197755,20.781275 C36.8551572,27.5801951 31.7749016,43.1821729 29.8231979,49.340235 Z"/>
        <path fill="#556026" d="M47.4060092,4.0024491 C34.5247648,25.0517193 32.2235022,31.9205511 28.0695776,56.179937 C27.9938398,51.4550662 28.8269551,56.0983732 28.5764379,49.0023281 C28.3259207,41.906283 28.4948742,24.4691212 33.7906911,17.0992549 C39.0865081,9.72938865 41.2362951,8.34280512 47.4060092,4.0024491 Z"/>
        <path fill="#69703C" d="M29.2464258,57.0014003 C26.6189082,62.675906 28.3725286,59.4366605 26.6363862,63.3284159 C34.0586863,40.6070892 37.0299367,34.1635539 51.3618505,15.6893674 C49.4509287,22.2377703 48.093475,25.0109374 43.3802562,30.9883941 C38.6670374,36.9658509 31.8797693,51.3210686 29.2464258,57.0014003 Z"/>
        <path fill="#556026" d="M51.3735025,15.6602375 C37.0415886,34.2276397 34.0062524,40.5196994 26.682994,63.3633718 C27.3471559,58.7899766 27.3471559,63.3633718 28.226879,56.5003659 C29.1066022,49.6373601 31.955507,32.7944483 37.6533167,26.4266508 C43.3511263,20.0588534 45.4018717,18.9985248 51.3735025,15.6602375 Z"/>
        <path fill="#69703C" d="M29.2347738,64.7674333 C26.5664744,69.9117747 27.6792368,67.9892009 25.7799669,71.7586108 C34.6529363,49.975267 37.9737456,44.7551878 56.4246282,30.2951024 C52.7892159,35.7540468 50.5403871,38.5505178 44.7726657,42.826788 C39.0049443,47.1030582 31.9030732,59.6172659 29.2347738,64.7674333 Z"/>
        <path fill="#556026" d="M56.4595841,30.2951024 C37.9912236,44.8600554 34.5830246,49.8820513 25.8557047,71.8226966 C26.6363862,67.4007768 27.0209009,70.3079415 27.9880138,64.0683156 C28.9551267,57.8286897 33.4760881,41.6324618 40.1235327,37.2688019 C46.7709773,32.905142 49.8703993,32.4274115 56.4595841,30.2951024 Z"/>
        <path fill="#69703C" d="M29.8872837,66.9987841 C27.1956804,70.8963656 28.2909648,69.4515222 26.391695,72.2887751 C35.9521302,55.5798609 39.1389419,51.6881054 54.8050054,41.7489815 C51.3560245,45.8271683 49.3052791,47.8546098 44.4464108,50.7676004 C39.5875424,53.680591 32.578887,63.0895507 29.8872837,66.9987841 Z"/>
        <path fill="#556026" d="M54.8399613,41.7140256 C39.1447679,51.7521912 35.9230002,55.4749932 26.4091729,72.3353829 C27.6034991,68.8397942 27.4928054,71.2226205 29.0658203,66.2880144 C30.6388353,61.3534083 36.2492552,48.7401589 41.7781114,45.8388203 C47.3069676,42.9374816 49.660664,42.8559179 54.8399613,41.7140256 Z"/>
        <path fill="#69703C" d="M27.3821118,75.114376 C24.6905084,79.0119574 25.7857929,77.5671141 23.8515671,80.4043669 C33.4469582,63.7129307 36.63377,59.8153493 52.2998335,49.8820513 C48.8508526,53.9602381 46.8001072,55.9876796 41.9412389,58.8948442 C37.0823705,61.8020089 30.0620631,71.2167945 27.3821118,75.114376 Z"/>
        <path fill="#556026" d="M52.3231374,49.8470954 C36.622118,59.8794351 33.4061764,63.608063 23.886523,80.4626267 C25.0808492,76.967038 24.9701555,79.3498643 26.5431705,74.4152582 C28.1161854,69.4806521 33.7324313,56.8674028 39.2612875,53.9660641 C44.7901437,51.0647255 47.1438401,50.9831617 52.3231374,49.8470954 Z"/>
        <path fill="#69703C" d="M27.1141166,49.340235 C29.0658203,55.4982972 27.6617589,51.9444486 28.9259968,56.1508071 C24.6380746,31.978811 22.4358537,25.0167634 9.53713127,4.03740499 C10.5158961,10.9528447 11.5529208,13.9823549 15.8117131,20.781275 C20.0705053,27.5801951 25.1624129,43.1821729 27.1141166,49.340235 Z"/>
        <path fill="#556026" d="M9.53130529,4.0024491 C22.4067238,25.0517193 24.7079864,31.9205511 28.861911,56.179937 C28.9434747,51.4550662 28.1103594,56.0983732 28.3608766,49.0023281 C28.6113938,41.906283 28.4366144,24.4516432 23.1174935,17.0992549 C17.7983726,9.74686659 15.6951934,8.34280512 9.53130529,4.0024491 Z"/>
        <path fill="#69703C" d="M27.6850628,57.0014003 C30.2951024,62.675906 28.547308,59.4250085 30.2951024,63.3284159 C22.8728023,40.6070892 19.9073779,34.1635539 5.57546403,15.6893674 C7.4805599,22.2377703 8.83801352,25.0109374 13.5570583,30.9883941 C18.2761031,36.9658509 25.0517193,51.3210686 27.6850628,57.0014003 Z"/>
        <path fill="#556026" d="M5.55798609,15.6602375 C19.8898999,34.2276397 22.9252361,40.5196994 30.2484945,63.3633718 C29.5843327,58.7899766 29.5901587,63.3633718 28.7104355,56.5003659 C27.8307123,49.6373601 24.9818075,32.7944483 19.2839979,26.4266508 C13.5861882,20.0588534 11.5354428,18.9985248 5.55798609,15.6602375 Z"/>
        <path fill="#69703C" d="M27.7025407,64.7674333 C30.3708401,69.9117747 29.2522517,67.9892009 31.1573476,71.7586108 C22.2843782,49.975267 18.9577429,44.7551878 0.512686348,30.2951024 C4.14809863,35.7715247 6.40857935,38.5679957 12.1471709,42.8442659 C17.8857624,47.1205362 25.0517193,59.6172659 27.7025407,64.7674333 Z"/>
        <path fill="#556026" d="M0.477730461,30.2951024 C18.940265,44.8600554 22.35429,49.8820513 31.0816098,71.8226966 C30.3009284,67.4007768 29.9164136,70.3079415 28.9493007,64.0683156 C27.9821878,57.8286897 23.4612264,41.6324618 16.8079558,37.2688019 C10.1546853,32.905142 7.06108925,32.4274115 0.477730461,30.2951024 Z"/>
        <path fill="#69703C" d="M27.0442049,66.9987841 C29.7416342,70.8963656 28.6463497,69.4515222 30.5747495,72.2887751 C20.9735324,55.5798609 17.7925467,51.6881054 2.13230913,41.7489815 C5.58129002,45.8271683 7.63203541,47.8546098 12.4850778,50.7676004 C17.3381201,53.680591 24.3526015,63.0895507 27.0442049,66.9987841 Z"/>
        <path fill="#556026" d="M2.09735324,41.7140256 C17.7925467,51.7521912 21.0143143,55.4749932 30.5281416,72.3353829 C29.3629454,68.8397942 29.4445091,71.2226205 27.8714942,66.2880144 C26.2984793,61.3534083 20.6880593,48.7401589 15.1475512,45.8388203 C9.60704304,42.9374816 7.27082457,42.8559179 2.09735324,41.7140256 Z"/>
        <path fill="#69703C" d="M29.9397175,75.2833294 C32.6313209,79.1809109 31.5418624,77.7360675 33.4702622,80.5733204 C23.886523,63.8760582 20.6880593,60.0076066 5.0278218,50.0451787 C8.47680269,54.1233656 10.5275481,56.1508071 15.3805904,59.0637977 C20.2336328,61.9767883 27.2481142,71.385748 29.9397175,75.2833294 Z"/>
        <path fill="#556026" d="M4.99286591,50.0102229 C20.6880593,60.0483885 23.886523,63.7711905 33.4236543,80.6315802 C32.2584581,77.1359914 32.3400218,79.5188178 30.7670069,74.5842117 C29.1939919,69.6496056 23.583572,57.0305302 18.0605418,54.1291916 C12.5375116,51.2278529 10.1663372,51.1521152 4.99286591,50.0102229 Z"/>
        <path fill="#69703C" d="M28.547308,73.9899616 L28.9493007,79.7751609 L28.9493007,24.504077 C28.9493007,24.504077 25.0925011,31.1107398 24.7895501,41.0149078 C24.4865991,50.9190759 28.547308,73.9899616 28.547308,73.9899616 Z"/>
        <path fill="#556026" d="M28.9259968,24.504077 L28.9259968,79.7809869 L29.3279895,73.9957876 C29.3279895,73.9957876 33.3595685,50.9190759 33.0624435,41.0149078 C32.7653184,31.1107398 28.9259968,24.504077 28.9259968,24.504077 Z"/>
        <path fill="#69703C" d="M29.3279895,89.370552 L28.9259968,95.1557514 L28.9259968,39.8788415 C28.9259968,39.8788415 32.7594924,46.4855042 33.0624435,56.3896723 C33.3653945,66.2938404 29.3279895,89.370552 29.3279895,89.370552 Z"/>
        <path fill="#556026" d="M28.9259968,39.8788415 L28.9259968,95.1557514 L28.547308,89.370552 C28.547308,89.370552 24.4691212,66.2938404 24.7895501,56.3896723 C25.1099791,46.4855042 28.9259968,39.8788415 28.9259968,39.8788415 Z"/>
        <path fill="#EDCC40" d="M18.3809708,61.9360064 C18.3809708,61.9360064 14.6698207,62.9439012 13.2133254,65.7753281 C17.5828113,69.7369953 18.3809708,70.8031499 18.3809708,70.8031499 C18.3809708,70.8031499 19.1733042,69.7369953 23.5486161,65.7753281 C22.0862948,62.9205973 18.3809708,61.9360064 18.3809708,61.9360064 Z"/>
        <polygon fill="#D8AF2E" points="13.586 65.152 18.381 68.566 23.17 65.152 23.549 65.775 18.381 70.803 13.213 65.775"/>
        <polygon fill="#FFF297" points="19.191 66.032 19.371 65.152 18.381 63.538 17.187 65.152 17.391 66.014 15.864 65.688 17.653 67.104 18.975 67.104 20.764 65.688"/>
        <path fill="#EDCC40" d="M28.7162615,61.9360064 C28.7162615,61.9360064 25.0051114,62.9439012 23.5486161,65.7753281 C27.918102,69.7369953 28.7162615,70.8031499 28.7162615,70.8031499 C28.7162615,70.8031499 29.5085949,69.7369953 33.8839068,65.7753281 C32.4274115,62.9205973 28.7162615,61.9360064 28.7162615,61.9360064 Z"/>
        <polygon fill="#D8AF2E" points="23.921 65.152 28.716 68.566 33.505 65.152 33.884 65.775 28.716 70.803 23.549 65.775"/>
        <polygon fill="#FFF297" points="29.526 66.032 29.707 65.152 28.716 63.538 27.522 65.152 27.726 66.014 26.199 65.688 27.988 67.104 29.311 67.104 31.099 65.688"/>
        <path fill="#EDCC40" d="M39.0340742,61.9360064 C39.0340742,61.9360064 35.3229242,62.9439012 33.8664289,65.7753281 C38.2359148,69.7369953 39.0340742,70.8031499 39.0340742,70.8031499 C39.0340742,70.8031499 39.8264077,69.7369953 44.2017196,65.7753281 C42.7627022,62.9205973 39.0340742,61.9360064 39.0340742,61.9360064 Z"/>
        <polygon fill="#D8AF2E" points="34.257 65.152 39.052 68.566 43.841 65.152 44.219 65.775 39.052 70.803 33.884 65.775"/>
        <polygon fill="#FFF297" points="39.861 66.032 40.042 65.152 39.052 63.538 37.857 65.152 38.061 66.014 36.535 65.688 38.323 67.104 39.646 67.104 41.434 65.688"/>
        <path fill="#EDCC40" d="M13.2133254,65.1985559 C10.8145804,66.2854363 8.95273706,68.290014 8.04568007,70.762368 C12.415166,76.5067855 13.2133254,78.0506705 13.2133254,78.0506705 C13.2133254,78.0506705 14.0056589,76.5067855 18.3809708,70.762368 C17.4716434,68.2914069 15.6105139,66.2875978 13.2133254,65.1985559 Z"/>
        <polygon fill="#D8AF2E" points="8.419 69.859 13.213 74.806 18.002 69.859 18.381 70.762 13.213 78.051 8.046 70.762"/>
        <polygon fill="#FFF297" points="14.023 71.135 14.204 69.859 13.213 67.517 12.019 69.859 12.223 71.106 10.697 70.628 12.485 72.685 13.808 72.685 15.596 70.628"/>
        <path fill="#EDCC40" d="M3.11689996,82.7871932 C3.11689996,82.7871932 1.29919381,83.6552644 0,87.815015 C1.31667176,91.2756479 2.5459538,92.6331015 2.5459538,92.6331015 C2.5459538,92.6331015 4.346182,94.0546409 8.49428063,88.147096 C7.49046154,85.7134124 5.55383857,83.783084 3.11689996,82.7871932 Z"/>
        <path fill="#D8AF2E" d="M0,87.815015 L1.80605418,91.4212974 L5.2433831,83.9582155 L8.51758455,88.0364023 L3.27420145,93.6817781 C3.27420145,93.6817781 0.139823549,89.9822801 0.116519625,89.3589001 C0.0932156996,88.7355201 0,87.815015 0,87.815015 Z"/>
        <polygon fill="#FFF297" points="1.893 88.38 1.94 87.285 1.369 85.292 .856 87.326 .996 88.392 .221 88.013 1.177 89.738 1.835 89.714 2.657 87.92"/>
        <path fill="#EDCC40" d="M23.5486161,65.1985559 C21.1498711,66.2854363 19.2880278,68.290014 18.3809708,70.762368 C22.7504567,76.5067855 23.5486161,78.0506705 23.5486161,78.0506705 C23.5486161,78.0506705 24.3409496,76.5067855 28.7162615,70.762368 C27.8069341,68.2914069 25.9458046,66.2875978 23.5486161,65.1985559 Z"/>
        <polygon fill="#D8AF2E" points="18.754 69.859 23.549 74.806 28.338 69.859 28.716 70.762 23.549 78.051 18.381 70.762"/>
        <polygon fill="#FFF297" points="24.358 71.135 24.539 69.859 23.549 67.517 22.354 69.859 22.558 71.106 21.026 70.628 22.82 72.685 24.143 72.685 25.931 70.628"/>
        <path fill="#EDCC40" d="M33.8839068,65.1985559 C31.4851618,66.2854363 29.6233185,68.290014 28.7162615,70.762368 C33.0857474,76.5067855 33.8839068,78.0506705 33.8839068,78.0506705 C33.8839068,78.0506705 34.6762403,76.5067855 39.0515522,70.762368 C38.1444952,68.290014 36.2826519,66.2854363 33.8839068,65.1985559 Z"/>
        <polygon fill="#D8AF2E" points="29.089 69.859 33.884 74.806 38.673 69.859 39.052 70.762 33.884 78.051 28.716 70.762"/>
        <polygon fill="#FFF297" points="34.694 71.135 34.874 69.859 33.884 67.517 32.69 69.859 32.893 71.106 31.367 70.628 33.156 72.685 34.478 72.685 36.267 70.628"/>
        <path fill="#EDCC40" d="M4.23548835,77.3399008 C4.23548835,77.3399008 2.3886523,78.1380602 0.932156996,82.245377 C2.09735324,85.7409657 3.29167939,87.1566792 3.29167939,87.1566792 C3.29167939,87.1566792 5.03947376,88.6481304 9.4031337,82.9037129 C8.49607671,80.4313588 6.6342334,78.4267812 4.23548835,77.3399008 Z"/>
        <path fill="#D8AF2E" d="M0.932156996,82.245377 L2.83725286,86.3235638 L8.18550362,80.6024503 L9.4031337,82.8279751 L3.93836331,88.2694416 C3.93836331,88.2694416 0.984590827,84.4417719 0.984590827,83.8242179 C0.984590827,83.2066639 0.932156996,82.245377 0.932156996,82.245377 Z"/>
        <polygon fill="#FFF297" points="3.851 83.014 4.008 81.739 3.152 79.396 2.126 81.739 2.301 82.985 .99 82.508 2.523 84.564 3.665 84.564 5.203 82.508"/>
        <path fill="#EDCC40" d="M2.87220875,94.2002905 C2.87220875,94.2002905 1.12441438,95.1965333 0.128171587,99.4436736 C1.68953456,102.799439 3.0411622,104.063677 3.0411622,104.063677 C3.0411622,104.063677 4.9346061,105.357045 8.64575614,99.1698525 C7.46650278,96.8053645 5.38588025,95.0144755 2.87220875,94.2002905 Z"/>
        <path fill="#D8AF2E" d="M0.128171587,99.4378476 L2.19056894,102.904306 L5.05112572,95.2198372 L8.61080025,99.0416809 L3.78106182,105.065745 C3.78106182,105.065745 0.42529663,101.570157 0.355384855,100.987559 C0.28547308,100.40496 0.128171587,99.4378476 0.128171587,99.4378476 Z"/>
        <polygon fill="#FFF297" points="2.057 99.869 2.027 98.768 1.311 96.828 .95 98.89 1.165 99.939 .367 99.618 1.445 101.273 2.097 101.203 2.785 99.35"/>
        <path fill="#EDCC40" d="M3.9092334,88.2403117 C3.9092334,88.2403117 2.16143904,89.2307285 1.16519625,93.4836948 C2.72655921,96.83946 4.07818686,98.1036979 4.07818686,98.1036979 C4.07818686,98.1036979 5.97745674,99.3970657 9.68860678,93.2040477 C8.50730926,90.8401719 6.42435872,89.0511861 3.9092334,88.2403117 Z"/>
        <path fill="#D8AF2E" d="M1.16519625,93.4778688 L3.49558874,97.2938865 L8.15637372,91.0134787 L9.61869501,93.087528 L4.81226049,99.0999407 C4.81226049,99.0999407 1.45649531,95.6043519 1.39240951,95.0217538 C1.32832372,94.4391557 1.16519625,93.4778688 1.16519625,93.4778688 Z"/>
        <polygon fill="#FFF297" points="4.154 93.921 4.166 92.633 3.059 90.396 2.295 92.843 2.61 94.06 1.247 93.734 3.006 95.604 4.136 95.476 5.441 93.268"/>
        <path fill="#EDCC40" d="M4.81226049,99.624279 C4.81226049,99.624279 3.06446613,100.614696 2.06822334,104.867662 C3.6295863,108.223427 4.98121395,109.487665 4.98121395,109.487665 C4.98121395,109.487665 6.88048383,110.781033 10.5916339,104.588015 C9.41033635,102.224139 7.32738581,100.435153 4.81226049,99.624279 Z"/>
        <path fill="#D8AF2E" d="M2.06822334,104.867662 L4.39861583,108.68368 L9.05940081,102.409098 L10.5217221,104.477321 L5.68615768,110.489734 C5.68615768,110.489734 2.33039249,106.994145 2.2663067,106.411547 C2.2022209,105.828949 2.06822334,104.867662 2.06822334,104.867662 Z"/>
        <polygon fill="#FFF297" points="5.057 105.316 5.069 104.029 3.962 101.797 3.198 104.238 3.513 105.456 2.15 105.13 3.909 107 5.039 106.872 6.339 104.664"/>
        <path fill="#EDCC40" d="M44.2191975,65.1985559 C41.8138317,66.2816563 39.9452156,68.2867444 39.0340742,70.762368 C43.4210381,76.5067855 44.2191975,78.0681484 44.2191975,78.0681484 C44.2191975,78.0681484 45.011531,76.5242634 49.3868429,70.7798459 C48.4837535,68.3009091 46.6213998,66.2894832 44.2191975,65.1985559 Z"/>
        <polygon fill="#D8AF2E" points="39.424 69.859 44.219 74.806 49.008 69.859 49.387 70.762 44.219 78.051 39.052 70.762"/>
        <polygon fill="#FFF297" points="45.035 71.135 45.21 69.859 44.219 67.517 43.025 69.859 43.229 71.106 41.702 70.628 43.491 72.685 44.813 72.685 46.602 70.628"/>
        <path fill="#EDCC40" d="M8.04568007,70.8031499 C8.04568007,70.8031499 5.13268946,72.1722554 3.68784612,76.2795722 C8.05733204,82.0239897 8.04568007,83.6552644 8.04568007,83.6552644 C8.04568007,83.6552644 8.83801352,82.1113794 13.2133254,76.3669619 C12.303998,73.8960009 10.4428685,71.8921918 8.04568007,70.8031499 Z"/>
        <polygon fill="#D8AF2E" points="4.037 75.464 6.671 80.579 12.835 75.464 13.213 76.373 8.046 83.655 3.688 76.28"/>
        <polygon fill="#FFF297" points="7.976 76.501 8.151 75.225 7.16 72.883 5.966 75.225 6.17 76.472 4.643 75.994 6.432 78.051 7.754 78.051 9.543 75.994"/>
        <path fill="#EDCC40" d="M7.77768494,82.4900682 C7.77768494,82.4900682 4.86469432,83.8591738 3.41985098,87.9664906 C7.79516288,93.710908 7.77768494,95.3480088 7.77768494,95.3480088 C7.77768494,95.3480088 8.57584437,93.7982978 12.9453303,88.0597062 C12.0373203,85.5865512 10.1760218,83.5804618 7.77768494,82.4900682 Z"/>
        <polygon fill="#D8AF2E" points="3.769 87.157 6.403 92.266 12.567 87.157 12.945 88.06 7.778 95.348 3.42 87.966"/>
        <polygon fill="#FFF297" points="7.708 88.188 7.888 86.912 6.892 84.57 5.704 86.912 5.908 88.159 4.375 87.687 6.164 89.738 7.492 89.738 9.281 87.687"/>
        <path fill="#EDCC40" d="M8.04568007,94.1478566 C8.04568007,94.1478566 5.13268946,95.5169622 3.68784612,99.624279 C8.05733204,105.368696 8.04568007,106.999971 8.04568007,106.999971 C8.04568007,106.999971 8.83801352,105.456086 13.2133254,99.7116687 C12.303998,97.2407076 10.4428685,95.2368985 8.04568007,94.1478566 Z"/>
        <polygon fill="#D8AF2E" points="4.037 98.809 6.671 103.918 12.835 98.809 13.213 99.712 8.046 107 3.688 99.624"/>
        <polygon fill="#FFF297" points="7.976 99.846 8.151 98.57 7.16 96.228 5.966 98.57 6.17 99.817 4.643 99.339 6.432 101.395 7.754 101.395 9.543 99.339"/>
        <path fill="#EDCC40" d="M7.86507466,106.126074 C6.13954164,107.428582 4.96502644,109.330673 4.57339526,111.456847 C9.29244006,115.867115 9.47887146,117.282828 9.47887146,117.282828 C9.47887146,117.282828 10.0148617,115.837985 13.2890632,110.291651 C12.1098123,108.23458 10.1567566,106.73465 7.86507466,106.126074 Z"/>
        <polygon fill="#D8AF2E" points="4.789 110.705 7.836 114.795 12.829 109.54 13.289 110.274 9.479 117.289 4.573 111.457"/>
        <polygon fill="#FFF297" points="8.518 111.084 8.523 109.954 7.317 108.049 6.525 110.239 6.869 111.294 5.412 111.084 7.306 112.634 8.512 112.459 9.893 110.437"/>
        <path fill="#EDCC40" d="M54.321449,83.0085805 C54.321449,83.0085805 56.1391551,83.8708257 57.4383489,88.0364023 C56.1216772,91.4912092 54.8865691,92.8486628 54.8865691,92.8486628 C54.8865691,92.8486628 53.0921669,94.2760282 48.9440683,88.3684833 C49.9451175,85.9329499 51.8826696,84.0016954 54.321449,83.0085805 Z"/>
        <path fill="#D8AF2E" d="M57.4383489,88.0364023 L55.6264688,91.6368587 L52.2240957,84.1796028 L48.9440683,88.2577896 L54.1874514,93.9089914 C54.1874514,93.9089914 57.2810474,90.2036673 57.3043514,89.5802873 C57.3276553,88.9569074 57.4383489,88.0364023 57.4383489,88.0364023 Z"/>
        <polygon fill="#FFF297" points="55.545 88.602 55.498 87.5 56.063 85.514 56.582 87.547 56.436 88.607 57.211 88.229 56.256 89.959 55.597 89.936 54.782 88.135"/>
        <path fill="#EDCC40" d="M53.1970346,77.5612881 C53.1970346,77.5612881 55.0496966,78.3536215 56.5061919,82.4609383 C55.3409957,85.956527 54.1757994,87.3722405 54.1757994,87.3722405 C54.1757994,87.3722405 52.4280051,88.8695176 48.0585191,83.1251002 C48.9610168,80.6595537 50.8108779,78.6565862 53.1970346,77.5612881 Z"/>
        <path fill="#D8AF2E" d="M56.5120179,82.4609383 L54.606922,86.5391251 L49.2586713,80.8180116 L48.0352152,83.0377104 L53.5058116,88.4791769 C53.5058116,88.4791769 56.4537581,84.6573332 56.4537581,84.0339532 C56.4537581,83.4105732 56.5120179,82.4609383 56.5120179,82.4609383 Z"/>
        <polygon fill="#FFF297" points="53.582 83.236 53.43 81.96 54.281 79.618 55.312 81.96 55.131 83.201 56.448 82.729 54.91 84.786 53.774 84.786 52.236 82.729"/>
        <path fill="#EDCC40" d="M54.5603142,94.4216777 C54.5603142,94.4216777 56.3081086,95.4179205 57.3043514,99.6650609 C55.7429884,103.020826 54.3913607,104.285064 54.3913607,104.285064 C54.3913607,104.285064 52.4920909,105.578432 48.7809408,99.3912397 C49.9604796,97.0247408 52.0438009,95.2333364 54.5603142,94.4216777 Z"/>
        <path fill="#D8AF2E" d="M57.3043514,99.6592349 L55.241954,103.119868 L52.3872232,95.4353985 L48.8217227,99.2747201 L53.6572871,105.287133 C53.6572871,105.287133 57.0072263,101.791544 57.0771381,101.208946 C57.1470499,100.626348 57.3043514,99.6592349 57.3043514,99.6592349 Z"/>
        <polygon fill="#FFF297" points="55.376 100.09 55.411 98.989 56.122 97.043 56.489 99.112 56.267 100.16 57.071 99.84 55.994 101.494 55.335 101.425 54.648 99.572"/>
        <path fill="#EDCC40" d="M53.5291155,88.455873 C53.5291155,88.455873 55.2769099,89.4521158 56.2731527,93.6992561 C54.7117897,97.0550213 53.3601621,98.3192592 53.3601621,98.3192592 C53.3601621,98.3192592 51.4900221,99.624279 47.7730461,93.419609 C48.9494857,91.0608804 51.0230555,89.2727412 53.5291155,88.455873 Z"/>
        <path fill="#D8AF2E" d="M56.2731527,93.6934301 L53.9427602,97.5152738 L49.2819752,91.234866 L47.7730461,93.3089153 L52.6086105,99.321328 C52.6086105,99.321328 55.9585497,95.8257392 56.0284615,95.2431411 C56.0983732,94.660543 56.2731527,93.6934301 56.2731527,93.6934301 Z"/>
        <polygon fill="#FFF297" points="53.284 94.136 53.273 92.854 54.38 90.617 55.137 93.058 54.828 94.276 56.186 93.95 54.432 95.826 53.296 95.698 51.997 93.49"/>
        <path fill="#EDCC40" d="M52.6260884,99.8514923 C52.6260884,99.8514923 54.3738828,100.847735 55.3701256,105.094875 C53.8087626,108.456467 52.457135,109.720704 52.457135,109.720704 C52.457135,109.720704 50.5636911,111.014072 46.852541,104.821054 C48.0317944,102.456566 50.1124169,100.665677 52.6260884,99.8514923 Z"/>
        <path fill="#D8AF2E" d="M55.3468217,105.089049 L53.0164292,108.910893 L48.3556442,102.630485 L46.8991489,104.704535 L51.7230613,110.693643 C51.7230613,110.693643 55.0730005,107.198055 55.1429123,106.615456 C55.2128241,106.032858 55.3468217,105.089049 55.3468217,105.089049 Z"/>
        <polygon fill="#FFF297" points="52.381 105.538 52.37 104.25 53.477 102.013 54.234 104.46 53.925 105.677 55.283 105.351 53.529 107.221 52.399 107.093 51.094 104.885"/>
        <path fill="#EDCC40" d="M49.3926688,71.0245371 C49.3926688,71.0245371 52.3056595,72.3936427 53.7505028,76.5009595 C49.3751909,82.245377 49.3926688,83.8941297 49.3926688,83.8941297 C49.3926688,83.8941297 48.5945094,82.3502446 44.2250235,76.6058272 C45.1281129,74.1268904 46.9904666,72.1154644 49.3926688,71.0245371 Z"/>
        <polygon fill="#D8AF2E" points="53.401 75.685 50.768 80.795 44.604 75.685 44.225 76.588 49.393 83.877 53.751 76.501"/>
        <polygon fill="#FFF297" points="49.463 76.722 49.282 75.446 50.278 73.104 51.467 75.446 51.263 76.693 52.795 76.215 51.006 78.272 49.678 78.272 47.89 76.215"/>
        <path fill="#EDCC40" d="M49.654838,82.7289334 C49.654838,82.7289334 52.5678286,84.098039 54.012672,88.2053558 C49.643186,93.9497733 49.654838,95.581048 49.654838,95.581048 C49.654838,95.581048 48.8625046,94.037163 44.4871927,88.2927455 C45.39652,85.8217844 47.2576495,83.8179753 49.654838,82.7289334 Z"/>
        <polygon fill="#D8AF2E" points="53.663 87.372 51.03 92.487 44.866 87.372 44.487 88.275 49.655 95.564 54.013 88.188"/>
        <polygon fill="#FFF297" points="49.725 88.409 49.55 87.133 50.54 84.791 51.735 87.133 51.531 88.38 53.057 87.902 51.269 89.959 49.946 89.959 48.158 87.902"/>
        <path fill="#EDCC40" d="M49.3926688,94.3808959 C49.3926688,94.3808959 52.3056595,95.7500015 53.7505028,99.8573182 C49.3751909,105.584258 49.3926688,107.198055 49.3926688,107.198055 C49.3926688,107.198055 48.5945094,105.65417 44.2250235,99.9097521 C45.1399794,97.4505646 47.0008076,95.4596672 49.3926688,94.3808959 Z"/>
        <polygon fill="#D8AF2E" points="53.401 99.03 50.768 104.139 44.604 99.03 44.225 99.933 49.393 107.221 53.751 99.846"/>
        <polygon fill="#FFF297" points="49.463 100.067 49.282 98.791 50.278 96.443 51.467 98.791 51.263 100.032 52.795 99.56 51.006 101.611 49.678 101.611 47.89 99.56"/>
        <path fill="#EDCC40" d="M49.5674483,106.347461 C51.2951642,107.648958 52.4718394,109.55118 52.8649537,111.678234 C48.1459089,116.088502 47.9536515,117.504215 47.9536515,117.504215 C47.9536515,117.504215 47.4234872,116.053546 44.1492857,110.513038 C45.3271857,108.457193 47.2779314,106.957426 49.5674483,106.347461 Z"/>
        <polygon fill="#D8AF2E" points="52.649 110.927 49.597 115.017 44.604 109.761 44.149 110.496 47.954 117.51 52.865 111.678"/>
        <polygon fill="#FFF297" points="48.915 111.305 48.915 110.169 50.115 108.27 50.913 110.461 50.57 111.515 52.026 111.305 50.133 112.855 48.921 112.674 47.546 110.659"/>
        <path fill="#EDCC40" d="M18.3809708,70.8031499 C15.9822257,71.8900303 14.1203824,73.8946079 13.2133254,76.3669619 C17.5828113,82.1113794 18.3809708,83.6552644 18.3809708,83.6552644 C18.3809708,83.6552644 19.1733042,82.1113794 23.5486161,76.3669619 C22.6392887,73.8960009 20.7781592,71.8921918 18.3809708,70.8031499 Z"/>
        <polygon fill="#D8AF2E" points="13.586 75.464 18.381 80.41 23.17 75.464 23.549 76.373 18.381 83.655 13.213 76.373"/>
        <polygon fill="#FFF297" points="19.191 76.74 19.371 75.464 18.381 73.122 17.187 75.464 17.391 76.711 15.864 76.239 17.653 78.29 18.975 78.29 20.764 76.239"/>
        <path fill="#EDCC40" d="M28.7162615,70.8031499 C26.3175164,71.8900303 24.4556731,73.8946079 23.5486161,76.3669619 C27.918102,82.1113794 28.7162615,83.6552644 28.7162615,83.6552644 C28.7162615,83.6552644 29.5085949,82.1113794 33.8839068,76.3669619 C32.9768498,73.8946079 31.1150065,71.8900303 28.7162615,70.8031499 Z"/>
        <polygon fill="#D8AF2E" points="23.921 75.464 28.716 80.41 33.505 75.464 33.884 76.373 28.716 83.655 23.549 76.373"/>
        <polygon fill="#FFF297" points="29.526 76.74 29.707 75.464 28.716 73.122 27.522 75.464 27.726 76.711 26.199 76.239 27.988 78.29 29.311 78.29 31.099 76.239"/>
        <path fill="#EDCC40" d="M39.0340742,70.8031499 C36.6353292,71.8900303 34.7734859,73.8946079 33.8664289,76.3669619 C38.2359148,82.1113794 39.0340742,83.6552644 39.0340742,83.6552644 C39.0340742,83.6552644 39.8264077,82.1113794 44.2017196,76.3669619 C43.2946626,73.8946079 41.4328193,71.8900303 39.0340742,70.8031499 Z"/>
        <polygon fill="#D8AF2E" points="34.257 75.464 39.052 80.41 43.841 75.464 44.219 76.373 39.052 83.655 33.884 76.373"/>
        <polygon fill="#FFF297" points="39.861 76.74 40.042 75.464 39.052 73.122 37.857 75.464 38.061 76.711 36.535 76.239 38.323 78.29 39.646 78.29 41.434 76.239"/>
        <path fill="#EDCC40" d="M13.1434136,76.2795722 C10.7446686,77.3664526 8.88282529,79.3710302 7.9757683,81.8433843 C12.3510802,87.5878018 13.1434136,89.1375128 13.1434136,89.1375128 C13.1434136,89.1375128 13.9415731,87.5936278 18.311059,81.8492103 C17.4053232,79.3746619 15.54331,77.3678021 13.1434136,76.2795722 Z"/>
        <polygon fill="#D8AF2E" points="8.354 80.946 13.143 85.887 17.938 80.946 18.311 81.849 13.143 89.132 7.976 81.849"/>
        <polygon fill="#FFF297" points="13.959 82.216 14.14 80.946 13.143 78.598 11.955 80.946 12.159 82.187 10.627 81.715 12.415 83.766 13.743 83.766 15.532 81.715"/>
        <path fill="#EDCC40" d="M23.4787043,76.2795722 C21.0799593,77.3664526 19.218116,79.3710302 18.311059,81.8433843 C22.6863709,87.5878018 23.4787043,89.1375128 23.4787043,89.1375128 C23.4787043,89.1375128 24.2768638,87.5936278 28.6463497,81.8492103 C27.7406139,79.3746619 25.8786007,77.3678021 23.4787043,76.2795722 Z"/>
        <polygon fill="#D8AF2E" points="18.69 80.946 23.479 85.887 28.273 80.946 28.646 81.849 23.479 89.132 18.311 81.849"/>
        <polygon fill="#FFF297" points="24.294 82.216 24.475 80.946 23.479 78.598 22.29 80.946 22.494 82.187 20.962 81.715 22.75 83.766 24.079 83.766 25.867 81.715"/>
        <path fill="#EDCC40" d="M33.7906911,76.2795722 C31.3919461,77.3664526 29.5301028,79.3710302 28.6230458,81.8433843 C33.0216616,87.5878018 33.7906911,89.1375128 33.7906911,89.1375128 C33.7906911,89.1375128 34.5888505,87.5936278 38.9583365,81.8492103 C38.0526007,79.3746619 36.1905874,77.3678021 33.7906911,76.2795722 Z"/>
        <polygon fill="#D8AF2E" points="29.025 80.946 33.814 85.887 38.609 80.946 38.982 81.849 33.814 89.132 28.646 81.849"/>
        <polygon fill="#FFF297" points="34.63 82.216 34.81 80.946 33.814 78.598 32.625 80.946 32.829 82.187 31.297 81.715 33.086 83.766 34.414 83.766 36.203 81.715"/>
        <path fill="#EDCC40" d="M44.1492857,76.2795722 C41.7520973,77.3686141 39.8909678,79.3724232 38.9816404,81.8433843 C43.3569523,87.5878018 44.1492857,89.1316868 44.1492857,89.1316868 C44.1492857,89.1316868 44.9474452,87.5878018 49.3169311,81.8433843 C48.4098741,79.3710302 46.5480308,77.3664526 44.1492857,76.2795722 Z"/>
        <polygon fill="#D8AF2E" points="39.36 80.946 44.149 85.887 48.944 80.946 49.317 81.849 44.149 89.132 38.982 81.849"/>
        <polygon fill="#FFF297" points="44.965 82.216 45.146 80.946 44.149 78.598 42.961 80.946 43.165 82.187 41.632 81.715 43.421 83.766 44.749 83.766 46.538 81.715"/>
        <path fill="#EDCC40" d="M18.2469732,82.245377 C15.8482282,83.3322574 13.9863848,85.336835 13.0793279,87.8091891 C17.4488138,93.5536065 18.2469732,95.0974916 18.2469732,95.0974916 C18.2469732,95.0974916 19.0393067,93.5536065 23.4146186,87.8091891 C22.5075616,85.336835 20.6457183,83.3322574 18.2469732,82.245377 Z"/>
        <polygon fill="#D8AF2E" points="13.452 86.906 18.247 91.852 23.036 86.906 23.415 87.809 18.247 95.097 13.079 87.809"/>
        <polygon fill="#FFF297" points="19.063 88.182 19.237 86.906 18.247 84.564 17.053 86.906 17.257 88.153 15.73 87.675 17.519 89.732 18.841 89.732 20.63 87.675"/>
        <path fill="#EDCC40" d="M28.5822639,82.245377 C26.1835188,83.3322574 24.3216755,85.336835 23.4146186,87.8091891 C27.7841045,93.5536065 28.5822639,95.0974916 28.5822639,95.0974916 C28.5822639,95.0974916 29.3745973,93.5536065 33.7499092,87.8091891 C32.8428523,85.336835 30.981009,83.3322574 28.5822639,82.245377 Z"/>
        <polygon fill="#D8AF2E" points="23.793 86.906 28.582 91.852 33.371 86.906 33.75 87.809 28.582 95.097 23.415 87.809"/>
        <polygon fill="#FFF297" points="29.398 88.182 29.579 86.906 28.582 84.564 27.388 86.906 27.592 88.153 26.065 87.675 27.854 89.732 29.177 89.732 30.965 87.675"/>
        <polygon fill="#D8AF2E" points="13.621 120.47 17.664 122.252 22.57 121.134 28.705 122.252 33.429 121.134 38.923 122.252 43.543 120.073 39.5 115.739 17.018 114.982"/>
        <path fill="#EDCC40" d="M38.9175546,82.245377 C36.5188095,83.3322574 34.6569662,85.336835 33.7499092,87.8091891 C38.1193952,93.5536065 38.9175546,95.0974916 38.9175546,95.0974916 C38.9175546,95.0974916 39.709888,93.5536065 44.0851999,87.8091891 C43.178143,85.336835 41.3162997,83.3322574 38.9175546,82.245377 Z"/>
        <polygon fill="#D8AF2E" points="34.129 86.906 38.918 91.852 43.707 86.906 44.085 87.809 38.918 95.097 33.75 87.809"/>
        <polygon fill="#FFF297" points="39.733 88.182 39.908 86.906 38.918 84.564 37.723 86.906 37.927 88.153 36.401 87.675 38.189 89.732 39.512 89.732 41.3 87.675"/>
        <path fill="#EDCC40" d="M13.0152421,88.2403117 C10.6176471,89.325842 8.75597354,91.3281381 7.84759671,93.7982978 C12.2170826,99.5427152 13.0152421,101.0866 13.0152421,101.0866 C13.0152421,101.0866 13.8075755,99.5427152 18.1828874,93.7982978 C17.272244,91.3295307 15.4112833,89.3280013 13.0152421,88.2403117 Z"/>
        <polygon fill="#D8AF2E" points="8.22 92.901 13.015 97.842 17.804 92.901 18.177 93.804 13.015 101.092 7.842 93.804"/>
        <polygon fill="#FFF297" points="13.825 94.177 14.006 92.901 13.015 90.559 11.821 92.901 12.025 94.142 10.493 93.67 12.281 95.727 13.609 95.727 15.398 93.67"/>
        <path fill="#EDCC40" d="M23.3505328,88.2403117 C20.9529378,89.325842 19.0912642,91.3281381 18.1828874,93.7982978 C22.5523733,99.5427152 23.3505328,101.0866 23.3505328,101.0866 C23.3505328,101.0866 24.1428662,99.5485412 28.547308,93.7982978 C27.6298478,91.3240906 25.7576058,89.3217152 23.3505328,88.2403117 Z"/>
        <polygon fill="#D8AF2E" points="18.556 92.901 23.351 97.842 28.139 92.901 28.518 93.804 23.351 101.092 18.177 93.804"/>
        <polygon fill="#FFF297" points="24.16 94.177 24.341 92.901 23.351 90.559 22.156 92.901 22.36 94.142 20.828 93.67 22.622 95.727 23.945 95.727 25.733 93.67"/>
        <path fill="#EDCC40" d="M33.6858235,88.2403117 C31.2992617,89.3321142 29.4488637,91.3335651 28.547308,93.7982978 C32.9167939,99.5427152 33.7149534,101.0866 33.7149534,101.0866 C33.7149534,101.0866 34.5072868,99.5427152 38.8825987,93.7982978 C37.9651385,91.3240906 36.0928965,89.3217152 33.6858235,88.2403117 Z"/>
        <polygon fill="#D8AF2E" points="28.891 92.901 33.686 97.842 38.475 92.901 38.853 93.804 33.686 101.092 28.518 93.804"/>
        <polygon fill="#FFF297" points="34.496 94.177 34.676 92.901 33.686 90.559 32.491 92.901 32.695 94.142 31.163 93.67 32.952 95.727 34.28 95.727 36.069 93.67"/>
        <path fill="#EDCC40" d="M44.0211142,88.2403117 C41.6235192,89.325842 39.7618456,91.3281381 38.8534688,93.7982978 C43.2229547,99.5427152 44.0211142,101.0866 44.0211142,101.0866 C44.0211142,101.0866 44.8134476,99.5427152 49.1887595,93.7982978 C48.2781161,91.3295307 46.4171554,89.3280013 44.0211142,88.2403117 Z"/>
        <polygon fill="#D8AF2E" points="39.226 92.901 44.021 97.842 48.81 92.901 49.189 93.804 44.021 101.092 38.853 93.804"/>
        <polygon fill="#FFF297" points="44.831 94.177 45.012 92.901 44.021 90.559 42.827 92.901 43.031 94.142 41.498 93.67 43.293 95.727 44.615 95.727 46.404 93.67"/>
        <path fill="#EDCC40" d="M18.1129756,94.1478566 C15.7142306,95.234737 13.8523873,97.2393147 12.9453303,99.7116687 C17.3206422,105.456086 18.1129756,106.999971 18.1129756,106.999971 C18.1129756,106.999971 18.9111351,105.45026 23.3039249,99.7116687 C22.3914232,97.2349531 20.5205484,95.2296944 18.1129756,94.1478566 Z"/>
        <polygon fill="#D8AF2E" points="13.324 98.809 18.113 103.755 22.902 98.809 23.281 99.712 18.113 107 12.945 99.712"/>
        <polygon fill="#FFF297" points="18.929 100.085 19.109 98.809 18.113 96.467 16.924 98.809 17.128 100.055 15.596 99.583 17.385 101.634 18.713 101.634 20.502 99.583"/>
        <path fill="#EDCC40" d="M28.4482663,94.1478566 C26.0583485,95.2397591 24.2055277,97.2436592 23.3039249,99.7116687 C27.6792368,105.456086 28.4715703,106.999971 28.4715703,106.999971 C28.4715703,106.999971 29.2464258,105.45026 33.6159117,99.7116687 C32.7088547,97.2393147 30.8470114,95.234737 28.4482663,94.1478566 Z"/>
        <polygon fill="#D8AF2E" points="23.659 98.809 28.448 103.755 33.243 98.809 33.616 99.712 28.448 107 23.281 99.712"/>
        <polygon fill="#FFF297" points="29.264 100.085 29.445 98.809 28.448 96.467 27.254 98.809 27.464 100.055 25.931 99.583 27.72 101.634 29.043 101.634 30.837 99.583"/>
        <path fill="#EDCC40" d="M38.783557,94.1478566 C36.384812,95.234737 34.5229687,97.2393147 33.6159117,99.7116687 C37.9912236,105.456086 38.783557,106.999971 38.783557,106.999971 C38.783557,106.999971 39.5817165,105.456086 43.9512024,99.7116687 C43.0441454,97.2393147 41.1823021,95.234737 38.783557,94.1478566 Z"/>
        <polygon fill="#D8AF2E" points="33.995 98.809 38.784 103.755 43.578 98.809 43.951 99.712 38.784 107 33.616 99.712"/>
        <polygon fill="#FFF297" points="39.599 100.085 39.78 98.809 38.784 96.467 37.595 98.809 37.799 100.055 36.267 99.583 38.055 101.634 39.384 101.634 41.172 99.583"/>
        <path fill="#EDCC40" d="M13.0793279,100.160269 C10.680991,101.250663 8.81969254,103.256752 7.91168251,105.729907 C12.2811684,111.474325 13.0793279,113.01821 13.0793279,113.01821 C13.0793279,113.01821 13.8716613,111.474325 18.2469732,105.729907 C17.3389632,103.256752 15.4776647,101.250663 13.0793279,100.160269 Z"/>
        <polygon fill="#D8AF2E" points="8.285 104.827 13.079 109.767 17.868 104.827 18.247 105.73 13.079 113.018 7.912 105.73"/>
        <polygon fill="#FFF297" points="13.895 106.103 14.076 104.827 13.079 102.485 11.885 104.827 12.089 106.068 10.563 105.596 12.351 107.652 13.674 107.652 15.462 105.596"/>
        <path fill="#EDCC40" d="M23.4146186,100.160269 C21.0162817,101.250663 19.1549832,103.256752 18.2469732,105.729907 C22.6164591,111.474325 23.4146186,113.01821 23.4146186,113.01821 C23.4146186,113.01821 24.206952,111.474325 28.5822639,105.729907 C27.6742539,103.256752 25.8129554,101.250663 23.4146186,100.160269 Z"/>
        <polygon fill="#D8AF2E" points="18.626 104.827 23.415 109.767 28.204 104.827 28.582 105.73 23.415 113.018 18.247 105.73"/>
        <polygon fill="#FFF297" points="24.23 106.103 24.411 104.827 23.415 102.485 22.22 104.827 22.424 106.068 20.898 105.596 22.686 107.652 24.009 107.652 25.797 105.596"/>
        <path fill="#EDCC40" d="M33.7499092,100.160269 C31.3515724,101.250663 29.4902739,103.256752 28.5822639,105.729907 C32.9517498,111.474325 33.7499092,113.01821 33.7499092,113.01821 C33.7499092,113.01821 34.5422427,111.474325 38.9175546,105.729907 C38.0095446,103.256752 36.1482461,101.250663 33.7499092,100.160269 Z"/>
        <polygon fill="#D8AF2E" points="28.961 104.827 33.75 109.767 38.539 104.827 38.918 105.73 33.75 113.018 28.582 105.73"/>
        <polygon fill="#FFF297" points="34.566 106.103 34.74 104.827 33.75 102.485 32.556 104.827 32.759 106.068 31.233 105.596 33.022 107.652 34.344 107.652 36.133 105.596"/>
        <path fill="#EDCC40" d="M44.0851999,100.160269 C41.6868631,101.250663 39.8255646,103.256752 38.9175546,105.729907 C43.2870405,111.474325 44.0851999,113.01821 44.0851999,113.01821 C44.0851999,113.01821 44.8775334,111.474325 49.2528453,105.729907 C48.3448353,103.256752 46.4835368,101.250663 44.0851999,100.160269 Z"/>
        <polygon fill="#D8AF2E" points="39.296 104.827 44.085 109.767 48.874 104.827 49.253 105.73 44.085 113.018 38.918 105.73"/>
        <polygon fill="#FFF297" points="44.901 106.103 45.081 104.827 44.085 102.485 42.891 104.827 43.095 106.068 41.568 105.596 43.357 107.652 44.679 107.652 46.468 105.596"/>
        <path fill="#EDCC40" d="M18.2469732,106.126074 C15.8482282,107.212954 13.9863848,109.217532 13.0793279,111.689886 C17.4488138,117.434304 18.2469732,118.978189 18.2469732,118.978189 C18.2469732,118.978189 19.0393067,117.434304 23.4146186,111.689886 C22.5075616,109.217532 20.6457183,107.212954 18.2469732,106.126074 Z"/>
        <polygon fill="#D8AF2E" points="13.452 110.787 18.247 115.733 23.036 110.787 23.415 111.69 18.247 118.978 12.835 111.958"/>
        <polygon fill="#FFF297" points="19.063 112.063 19.237 110.787 18.247 108.445 17.053 110.787 17.257 112.034 15.73 111.562 17.519 113.612 18.841 113.612 20.63 111.562"/>
        <path fill="#EDCC40" d="M28.5822639,106.126074 C26.1835188,107.212954 24.3216755,109.217532 23.4146186,111.689886 C27.7841045,117.434304 28.5822639,118.978189 28.5822639,118.978189 C28.5822639,118.978189 29.3745973,117.434304 33.7499092,111.689886 C32.8428523,109.217532 30.981009,107.212954 28.5822639,106.126074 Z"/>
        <polygon fill="#D8AF2E" points="23.793 110.787 28.582 115.733 33.371 110.787 33.75 111.69 28.582 118.978 23.415 111.69"/>
        <polygon fill="#FFF297" points="29.398 112.063 29.579 110.787 28.582 108.445 27.388 110.787 27.592 112.034 26.065 111.562 27.854 113.612 29.177 113.612 30.965 111.562"/>
        <path fill="#EDCC40" d="M38.9175546,106.126074 C36.5188095,107.212954 34.6569662,109.217532 33.7499092,111.689886 C38.1193952,117.434304 38.9175546,118.978189 38.9175546,118.978189 C38.9175546,118.978189 39.709888,117.434304 44.0851999,111.689886 C43.178143,109.217532 41.3162997,107.212954 38.9175546,106.126074 Z"/>
        <polygon fill="#D8AF2E" points="34.129 110.787 38.918 115.733 43.707 110.787 44.085 111.69 38.918 118.978 33.75 111.69"/>
        <polygon fill="#FFF297" points="39.733 112.063 39.908 110.787 38.918 108.445 37.723 110.787 37.927 112.034 36.401 111.562 38.189 113.612 39.512 113.612 41.3 111.562"/>
        <path fill="#EDCC40" d="M12.8171587,111.957881 C12.8171587,111.957881 9.70608472,112.48222 8.34280512,116.362323 C11.5296168,120.388076 13.5861882,120.46964 13.5861882,120.46964 C13.5861882,120.46964 14.588257,120.609463 17.6294192,117.218742 C15.8771953,115.606607 14.2671527,113.846475 12.8171587,111.957881 Z"/>
        <path fill="#D8AF2E" d="M8.36028306,116.362323 L11.8558718,119.560787 C12.1821267,119.81713 13.7434897,120.102603 14.0289628,119.805478 L16.749696,115.727291 L17.676027,117.195438 L16.4234411,118.861669 C15.6432847,119.908907 14.4310173,120.54672 13.1260758,120.596518 C11.8211344,120.646317 10.5637839,120.102748 9.70608472,119.118012 L8.54088848,117.143005 L8.36028306,116.362323 Z"/>
        <polygon fill="#FFF297" points="13.295 118.203 13.202 117.102 11.827 115.378 11.215 117.592 11.652 118.582 10.166 118.535 12.205 119.835 13.406 119.537 14.617 117.428"/>
        <path fill="#EDCC40" d="M23.5544421,111.85884 C23.5544421,111.85884 20.4433681,112.383178 19.0800885,116.263281 C22.2669003,120.289034 24.3234716,120.370598 24.3234716,120.370598 C24.3234716,120.370598 25.3197144,120.510422 28.3667026,117.119701 C26.6144787,115.507565 25.0044361,113.747434 23.5544421,111.85884 Z"/>
        <path fill="#D8AF2E" d="M19.0800885,116.286585 L22.5756773,119.485049 C22.9019322,119.741392 24.4632952,120.026865 24.7487683,119.72974 L27.4695015,115.651553 L28.3958325,117.119701 L27.1432465,118.785931 C26.3630901,119.83317 25.1508228,120.470982 23.8458813,120.52078 C22.5409398,120.570579 21.2835894,120.02701 20.4258902,119.042274 L18.5907061,117.26535 L19.0800885,116.286585 Z"/>
        <polygon fill="#FFF297" points="24.306 118.267 24.37 117.16 23.257 115.261 22.337 117.364 22.628 118.407 21.166 118.145 22.995 119.724 24.224 119.602 25.728 117.691"/>
        <path fill="#EDCC40" d="M44.3298912,111.561715 C44.3298912,111.561715 47.4409651,112.086053 48.8042447,115.966156 C45.617433,119.991909 43.5608616,120.044343 43.5608616,120.044343 C43.5608616,120.044343 42.5587929,120.184167 39.5176307,116.793446 C41.2685816,115.190565 42.8785883,113.440218 44.3298912,111.561715 Z"/>
        <path fill="#D8AF2E" d="M48.8042447,115.966156 L45.308656,119.16462 C44.9824011,119.415137 43.4210381,119.706436 43.135565,119.403485 L40.4264837,115.354428 L39.5001527,116.822576 L40.7818686,118.488806 C41.562025,119.536045 42.7742924,120.173857 44.0792338,120.223655 C45.3841753,120.273454 46.6415258,119.729885 47.4992249,118.745149 L48.6644212,116.770142 L48.8042447,115.966156 Z"/>
        <polygon fill="#FFF297" points="43.87 117.807 43.963 116.706 45.338 114.982 45.95 117.195 45.513 118.186 46.998 118.133 44.959 119.438 43.759 119.141 42.547 117.032"/>
        <path fill="#EDCC40" d="M33.6100857,111.485977 C33.6100857,111.485977 36.7211597,112.010315 38.0844393,115.890419 C34.8976276,119.916172 32.8410562,119.997735 32.8410562,119.997735 C32.8410562,119.997735 31.8389874,120.137559 28.7978252,116.746838 C30.5500491,115.134702 32.1600917,113.374571 33.6100857,111.485977 Z"/>
        <path fill="#D8AF2E" d="M38.0844393,115.890419 L34.5888505,119.088882 C34.2625956,119.339399 32.7012326,119.630699 32.4157595,119.327747 L29.7125043,115.278691 L28.7861732,116.746838 L30.0387592,118.413068 C30.8189156,119.460307 32.031183,120.098119 33.3361244,120.147918 C34.6410659,120.197716 35.8984164,119.654147 36.7561156,118.669412 L38.5039099,116.688578 L38.0844393,115.890419 Z"/>
        <polygon fill="#FFF297" points="32.859 117.865 32.794 116.764 33.907 114.865 34.828 116.968 34.536 118.011 35.999 117.743 34.169 119.328 32.94 119.205 31.437 117.294"/>
        <polygon fill="#EDCC40" points="17.892 116.689 14.565 120.073 17.664 121.676 21.859 120.149"/>
        <polygon fill="#EDCC40" points="38.918 116.217 42.547 119.654 39.028 121.472 34.828 119.945"/>
        <polygon fill="#EDCC40" points="28.611 116.444 32.241 119.881 28.722 121.699 25.162 120.073"/>
        <polygon fill="#FFF297" points="38.02 120.324 37.787 119.782 38.731 118.681 40.071 119.596 39.902 120.155 41.481 119.817 39.692 120.866 38.312 120.977 36.366 120.237"/>
        <polygon fill="#FFF297" points="27.656 120.423 27.475 119.864 28.536 118.862 29.765 119.91 29.544 120.452 31.152 120.283 29.264 121.134 27.871 121.105 26.013 120.167"/>
        <polygon fill="#FFF297" points="18.894 120.679 19.103 120.126 18.107 119.071 16.814 120.05 17.006 120.604 15.416 120.341 17.251 121.297 18.637 121.344 20.548 120.51"/>
      </g>
    </g>
  </g>
</svg>
