<svg xmlns="http://www.w3.org/2000/svg" xmlns:xlink="http://www.w3.org/1999/xlink" width="150" height="150" viewBox="0 0 150 150">
  <defs>
    <rect id="fruit-5-a" width="150" height="150" rx="4"/>
  </defs>
  <g fill="none" fill-rule="evenodd">
    <mask id="fruit-5-b" fill="#fff">
      <use xlink:href="#fruit-5-a"/>
    </mask>
    <use fill="#D4E5F9" xlink:href="#fruit-5-a"/>
    <g mask="url(#fruit-5-b)">
      <g transform="translate(15.877 33.067)">
        <g transform="translate(30.476 .033)">
          <path fill="#56A319" fill-rule="nonzero" d="M80.2427414,41.0225519 C74.8160279,55.7423895 59.5106679,66.3439436 41.4739602,66.3439436 C23.4372525,66.3439436 8.13189251,55.7391184 2.70517904,41.0258229 C8.12862143,26.3059853 23.4372525,15.7011601 41.4739602,15.7011601 C59.5106679,15.7011601 74.8160279,26.3059853 80.2427414,41.0225519 Z"/>
          <path fill="#56A319" fill-rule="nonzero" d="M82.3427715,37.0972618 C82.3437441,38.4089623 82.268382,39.7196079 82.1170674,41.0225519 C81.9648436,39.7013982 81.7332693,38.3906 81.4235995,37.0972618 C77.4557855,20.3787974 61.0775128,7.85058005 41.4739602,7.85058005 C21.8704076,7.85058005 5.49213496,20.3787974 1.52432096,37.0972618 C1.21465116,38.3906 0.983076803,39.7013982 0.830853056,41.0225519 C0.529674299,38.4143576 0.529674299,35.780166 0.830853056,33.1719718 C2.99303365,14.5301153 20.362442,0 41.4739602,0 C62.5854784,0 79.9548868,14.5301153 82.1039831,33.1719718 C82.2595454,34.4746719 82.3392759,35.785311 82.3427715,37.0972618 Z"/>
          <path fill="#56A319" fill-rule="nonzero" d="M80.2427414,41.0225519 C74.8160279,55.7423895 59.5106679,66.3439436 41.4739602,66.3439436 C23.4372525,66.3439436 8.13189251,55.7391184 2.70517904,41.0258229 C8.12862143,26.3059853 23.4372525,15.7011601 41.4739602,15.7011601 C59.5106679,15.7011601 74.8160279,26.3059853 80.2427414,41.0225519 Z"/>
          <path fill="#79B742" fill-rule="nonzero" d="M81.4235995,37.1005329 C77.4557855,20.3787974 61.0775128,7.85058005 41.4739602,7.85058005 C21.8704076,7.85058005 5.49213496,20.3787974 1.52432096,37.0972618 C1.21465116,38.3906 0.983076803,39.7013982 0.830853056,41.0225519 C0.98333409,42.343668 1.21490573,43.6544508 1.52432096,44.9478419 C5.49213496,61.6663063 21.8704076,74.1945237 41.4739602,74.1945237 C61.0775128,74.1945237 77.4557855,61.6663063 81.4235995,44.9478419 C81.7330147,43.6544508 81.9645863,42.343668 82.1170674,41.0225519 C81.964714,39.7024969 81.7331403,38.3927949 81.4235995,37.1005329 Z M80.2427414,41.0258229 C74.8160279,55.7456605 59.5106679,66.3472147 41.4739602,66.3472147 C23.4372525,66.3472147 8.13189251,55.7391184 2.70517904,41.0258229 C8.12862143,26.3059853 23.4372525,15.7011601 41.4739602,15.7011601 C59.5106679,15.7011601 74.8160279,26.3059853 80.2427414,41.0225519 L80.2427414,41.0258229 Z"/>
          <path fill="#56A319" fill-rule="nonzero" d="M80.2427414,41.0225519 C74.8160279,55.7423895 59.5106679,66.3439436 41.4739602,66.3439436 C23.4372525,66.3439436 8.13189251,55.7391184 2.70517904,41.0258229 C8.12862143,26.3059853 23.4372525,15.7011601 41.4739602,15.7011601 C59.5106679,15.7011601 74.8160279,26.3059853 80.2427414,41.0225519 Z"/>
          <path fill="#56A319" fill-rule="nonzero" d="M82.3427715,44.9478419 C82.3436187,46.2595388 82.268257,47.5701771 82.1170674,48.8731319 C79.9581579,67.5182595 62.5854784,82.0483748 41.4739602,82.0483748 C20.362442,82.0483748 2.98976257,67.5182595 0.830853056,48.8731319 C0.529905976,46.2649244 0.529905976,43.6307594 0.830853056,41.0225519 C0.98333409,42.343668 1.21490573,43.6544508 1.52432096,44.9478419 C5.49213496,61.6663063 21.8704076,74.1945237 41.4739602,74.1945237 C61.0775128,74.1945237 77.4557855,61.6663063 81.4235995,44.9478419 C81.7330147,43.6544508 81.9645863,42.343668 82.1170674,41.0225519 C82.268257,42.3255067 82.3436187,43.636145 82.3427715,44.9478419 Z"/>
          <path fill="#56A319" fill-rule="nonzero" d="M80.2427414,41.0225519 C74.8160279,55.7423895 59.5106679,66.3439436 41.4739602,66.3439436 C23.4372525,66.3439436 8.13189251,55.7391184 2.70517904,41.0258229 C8.12862143,26.3059853 23.4372525,15.7011601 41.4739602,15.7011601 C59.5106679,15.7011601 74.8160279,26.3059853 80.2427414,41.0225519 Z"/>
          <path fill="#79B742" fill-rule="nonzero" d="M0.830853056,41.464147 C0.830853056,41.464147 17.4773538,23.5157583 41.1632081,23.5157583 C64.8490623,23.5157583 82.1039831,41.464147 82.1039831,41.464147 C82.1039831,41.464147 66.5729189,58.5522429 41.1632081,58.5522429 C15.7534973,58.5522429 0.830853056,41.464147 0.830853056,41.464147 Z"/>
          <path fill="#56A319" fill-rule="nonzero" d="M0.830853056,41.5426528 C0.830853056,41.5426528 17.4773538,35.0888218 41.1632081,35.0888218 C64.8490623,35.0888218 82.1039831,41.5426528 82.1039831,41.5426528 C82.1039831,41.5426528 66.5598346,47.6824606 41.1501238,47.6824606 C15.740413,47.6824606 0.830853056,41.5426528 0.830853056,41.5426528 Z"/>
        </g>
        <path fill="#56A319" fill-rule="nonzero" d="M82.8007221,47.9245202 C82.9327164,62.7445216 75.1020208,76.4955982 62.2890699,83.9439641 C49.476119,91.39233 33.6517106,91.39233 20.8387597,83.9439641 C8.02580874,76.4955982 0.195113168,62.7445216 0.327107502,47.9245202 L82.8007221,47.9245202 Z"/>
        <path fill="#F7F7B2" fill-rule="nonzero" d="M80.2918075,47.9245202 C80.4197476,61.8454699 73.0663619,74.764054 61.0313368,81.7617238 C48.9963117,88.7593936 34.1315178,88.7593936 22.0964927,81.7617238 C10.0614677,74.764054 2.70808192,61.8454699 2.83602204,47.9245202 L80.2918075,47.9245202 Z"/>
        <path fill="#EF5B5B" fill-rule="nonzero" d="M75.6697785,48.0226524 C75.7898897,60.2870908 69.3157457,71.6716461 58.7139965,77.8388003 C48.1122474,84.0059545 35.0155822,84.0059545 24.413833,77.8388003 C13.8120839,71.6716461 7.33793983,60.2870908 7.45805105,48.0226524 L75.6697785,48.0226524 Z"/>
        <path d="M82.8007221,47.9245202 L0.327107502,47.9245202"/>
        <path fill="#42423E" fill-rule="nonzero" d="M44.3328798 71.1622371C44.4256386 71.9153424 44.0759669 72.6544477 43.4348725 73.0603661 42.7937782 73.4662846 41.976131 73.4662846 41.3350367 73.0603661 40.6939423 72.6544477 40.3442707 71.9153424 40.4370294 71.1622371 40.4370294 70.0893245 41.3038643 68.5453771 42.3996744 67.7832166 43.4137077 68.4832267 44.3328798 70.0893245 44.3328798 71.1622371zM30.7219366 67.6621868C30.4280151 68.3639031 29.7550359 68.8325453 28.9949346 68.8648184 28.2348333 68.8970915 27.5245517 68.4871811 27.1722069 67.8129047 26.8198621 67.1386283 26.8889336 66.3214651 27.3494583 65.7158972 27.8891856 64.7836408 29.4069645 63.8906373 30.7284788 63.7532522 31.2682061 64.8817731 31.261664 66.7299305 30.7219366 67.6621868zM21.9162027 59.4877704C21.3109401 59.9347024 20.5034465 59.9962815 19.8374115 59.6462981 19.1713765 59.2963147 18.7640403 58.5963754 18.7887755 57.8443918 18.8135106 57.0924083 19.265963 56.4207502 19.9535576 56.115292 20.885814 55.5788357 22.6456524 55.5657514 23.8559501 56.115292 23.7872576 57.3517584 22.8582723 58.9513141 21.9162027 59.4877704zM56.8316574 65.1696277C57.2785895 65.7748903 57.3401686 66.5823838 56.9901852 67.2484188 56.6402017 67.9144538 55.9402624 68.32179 55.1882789 68.2970549 54.4362954 68.2723197 53.7646373 67.8198673 53.4591791 67.1322727 52.9227228 66.2032874 52.9063674 64.443449 53.4591791 63.2331513 54.6956455 63.308386 56.2919301 64.2373713 56.8316574 65.1696277zM63.5896984 55.4120109C64.277293 55.7174691 64.7297454 56.3891272 64.7544806 57.1411107 64.7792158 57.8930942 64.3718796 58.5930335 63.7058446 58.9430169 63.0398095 59.2930004 62.232316 59.2314213 61.6270534 58.7844892 60.694797 58.2447619 59.8017936 56.726983 59.6644084 55.4054687 60.8092847 54.8657414 62.6574421 54.8722835 63.5896984 55.4120109z"/>
      </g>
    </g>
  </g>
</svg>
